"('ihave', 'thatis')","('but', 'hewrote')"
"('any', 'art')","('of', 'sof')"
"('back', 'l')","('came', 'head')"
"('anyone', 'm')","('at', 'from')"
"('against', 'along', 'myself', 'plants')","('ed', 'ing')"
"('being', 'tobe')","('isnot', 'not')"
"('him', 'house')","('around', 'round')"
"('ar', 'by')","('here', 'there')"
"('had', 'would')","('jay', 'lucy')"
"('maybe', 'perhaps')","('or', 'that')"
"('avery', 'm')","('itis', 'itwas')"
"('easy', 'yet')","('and', 'not')"
"('fully', 'left')","('i', 'sare')"
"('family', 'name', 'voice')","('her', 'his')"
"('be', 'when')","('just', 'there')"
"('they', 'theyare')","('until', 'why')"
"('canbe', 'willbe')","('they', 'this')"
"('iam', 'itwas')","('if', 'what')"
"('feet', 'hands')","('both', 'their')"
"('icant', 'ihad', 'only', 'thisis')","('but', 'if')"
"('leonards', 'spring', 'th')","('for', 'in')"
"('novel', 'office')","('inthe', 'ofthe')"
"('door', 'side', 'wall')","('onthe', 'tothe')"
"('someone', 'we')","('from', 'have')"
"('home', 'through')","('togo', 'went')"
"('away', 'down')","('put', 'right')"
"('said', 'with')","('bed', 'woman')"
"('centre', 'garden', 'lower', 'pregnancy')","('a', 'your')"
"('guard', 'leg')","('front', 'leading')"
"('doing', 'given')","('is', 'tobe')"
"('different', 'six')","('are', 'at')"
"('atleast', 'before')","('but', 'well')"
"('desk', 'feeling', 'heart')","('a', 'my')"
"('its', 'their')","('oneof', 'son')"
"('death', 'eachother')","('of', 'with')"
"('family', 'mind')","('his', 'their')"
"('iam', 'im', 'necessary')","('if', 'when')"
"('family', 'friends')","('her', 'their')"
"('by', 'intothe')","('out', 'went')"
"('her', 'them')","('sof', 'tomake')"
"('but', 'ihave', 'then')","('hewrote', 'now')"
"('deep', 'half', 'little', 'top')","('as', 'in')"
"('down', 'there')","('sat', 'toget')"
"('action', 'can', 'withthe')","('ing', 'this')"
