"('its', 'not')","('all', 'being')"
"('atleast', 'heard', 'hook', 'lookedat', 'making', 'read', 'tokeep')","('it', 'the')"
"('almost', 'myself')","('in', 'to')"
"('hold', 'igot')","('back', 'up')"
"('they', 'this')","('canbe', 'willbe')"
"('put', 'right')","('away', 'down')"
"('around', 'round')","('him', 'house')"
"('op', 'weep')","('ing', 'or')"
"('again', 'away')","('about', 'and')"
"('contact', 'find', 'holding', 'keep', 'let', 'todo')","('the', 'your')"
"('but', 'if')","('icant', 'thisis')"
"('tomake', 'tosee', 'without')","('her', 'them')"
"('i', 'sare')","('fully', 'left')"
"('state', 'world')","('ly', 'was')"
"('will', 'would')","('come', 'make')"
"('thereare', 'therewere')","('no', 'some')"
"('ism', 'yourself')","('as', 'is')"
"('cause', 'centre', 'leaves', 'moment', 'place', 'space', 'work')","('for', 'of')"
"('oneof', 'son')","('its', 'their')"
"('herself', 'set')","('on', 'to')"
"('return', 'tip')","('of', 's')"
"('bed', 'woman')","('said', 'with')"
"('having', 'leave')","('me', 'the', 'you')"
"('mark', 'work')","('of', 'on')"
"('came', 'head')","('back', 'l')"
"('held', 'hold')","('off', 'up')"
"('isnot', 'not')","('being', 'tobe')"
"('doctor', 'visitor')","('or', 'will')"
"('her', 'his')","('name', 'voice')"
"('called', 'lookedat', 'making', 'tokeep', 'took')","('him', 'it')"
"('until', 'why')","('they', 'theyare')"
"('itis', 'itwas')","('avery', 'm')"
"('edon', 'took', 'towards')","('him', 'his')"
"('hold', 'went')","('back', 'off')"
"('ask', 'let')","('your', 'yourself')"
"('here', 'there')","('ar', 'by')"
